Day-09.R
…
print(plot)

function (x, y, ...) 
UseMethod("plot")
<bytecode: 0x115b33dd0>
<environment: namespace:base>

### Yes the model does seem valid.

### The R^2 suggest only a slight correlation

a <- broom::augment(model)
a

# A tibble: 116 × 9
   .rownames Ozone   Day .fitted .resid   .hat .sigma   .cooksd .std.resid
   <chr>     <int> <int>   <dbl>  <dbl>  <dbl>  <dbl>     <dbl>      <dbl>
 1 1            41     1    42.9  -1.85 0.0326   33.3 0.0000546    -0.0569
 2 2            36     2    42.8  -6.80 0.0294   33.3 0.000659     -0.208 
 3 3            12     3    42.8 -30.8  0.0265   33.1 0.0120       -0.941 
 4 4            18     4    42.7 -24.7  0.0237   33.2 0.00692      -0.755 
 5 6            28     6    42.6 -14.6  0.0189   33.2 0.00191      -0.445 
 6 7            23     7    42.6 -19.6  0.0169   33.2 0.00304      -0.595 
 7 8            19     8    42.5 -23.5  0.0151   33.2 0.00391      -0.715 
 8 9             8     9    42.5 -34.5  0.0135   33.1 0.00749      -1.05  
 9 11            7    11    42.4 -35.4  0.0110   33.1 0.00638      -1.07  
10 12           16    12    42.3 -26.3  0.0100   33.2 0.00323      -0.798 
# ℹ 106 more rows
…
